{
  "logos": [
    {
      "imageFile": "http://uk-microsites.ign.com/brand/images/logos/ign/ign_editors-choice/IGN-Editors-Choice-Logo-opt.png", 
      "url": {
        "png": "http://uk-microsites.ign.com/brand/images/logos/ign/IGN-Editors-Choice-Logo.png",
        "jpg": "http://uk-microsites.ign.com/brand/images/logos/ign/IGN-Editors-Choice-Logo.jpg",
        "ai": "http://uk-microsites.ign.com/brand/images/logos/ign/ign_editors-choice/IGN%20Editors%20Choice%20Logo.ai"
      }, 
      "logoTitle": "IGN Editors Choice", 
      "formats": {
        "png": "29KB",
        "jpg": "33KB",
        "ai": "950KB"
      },
      "modalColor": "white"
    }, 
    {
      "imageFile": "http://uk-microsites.ign.com/brand/images/logos/ign/ign_entertainment/IGN-Ent-Logo-opt.png", 
      "url": {
        "ai": "http://uk-microsites.ign.com/brand/images/logos/ign/ign_entertainment/IGN%20Entertainment%20Logos.ai", 
        "jpg": "http://uk-microsites.ign.com/brand/images/logos/ign/ign_entertainment/IGN%20Ent%20Logo.jpg", 
        "png": "http://uk-microsites.ign.com/brand/images/logos/ign/ign_entertainment/IGN%20Ent%20Logo.png"
      }, 
      "logoTitle": "IGN Entertainment", 
      "formats": {
        "ai": "555KB", 
        "jpg": "125KB", 
        "png": "52KB"
      },
      "modalColor": "white"
    }, 
    {
      "imageFile": "http://uk-microsites.ign.com/brand/images/logos/ign/ign_first-look-black/IGN-First-Look-on-Black-opt.png", 
      "url": {
        "ai": "http://uk-microsites.ign.com/brand/images/logos/ign/ign_first-look-black/IGN%20First%20Look%20on%20Black.ai", 
        "jpg": "http://uk-microsites.ign.com/brand/images/logos/ign/ign_first-look-black/IGN%20First%20Look%20on%20Black.jpg", 
        "png": "http://uk-microsites.ign.com/brand/images/logos/ign/ign_first-look-black/IGN_First_Look_on_Black-sml.png"
      }, 
      "logoTitle": "IGN First Look on Black", 
      "formats": {
        "ai": "584KB", 
        "jpg": "110KB", 
        "png": "4KB"
      },
      "modalColor": "black"
    }, 
    {
      "imageFile": "http://uk-microsites.ign.com/brand/images/logos/ign/ign_first-look-white/IGN%20First%20Look%20on%20White.jpg", 
      "url": {
        "ai": "http://uk-microsites.ign.com/brand/images/logos/ign/ign_first-look-white/IGN%20First%20Look%20on%20White.ai", 
        "jpg": "http://uk-microsites.ign.com/brand/images/logos/ign/ign_first-look-white/IGN%20First%20Look%20on%20White.jpg", 
        "png": "http://uk-microsites.ign.com/brand/images/logos/ign/ign_first-look-white/IGN%20First%20Look%20on%20White.png"
      }, 
      "logoTitle": "IGN First Look on White", 
      "formats": {
        "ai": "580KB", 
        "jpg": "22KB", 
        "png": "6KB"
      },
      "modalColor": "white"
    }, 
    {
      "imageFile": "http://uk-microsites.ign.com/brand/images/logos/ign/ign_ipl/IPL-Crest-Logo-for-Dark-BG.jpg", 
      "url": {
        "jpg": "http://uk-microsites.ign.com/brand/images/logos/ign/ign_ipl/IPL-Crest-Logo-for-Dark-BG.jpg", 
        "png": "http://uk-microsites.ign.com/brand/images/logos/ign/ign_ipl/IPL%20Crest%20Logo%20for%20White%20BG.png", 
        "eps": "http://uk-microsites.ign.com/brand/images/logos/ign/ign_ipl/IPL%20Logo%20for%20Dark%20BG.eps"
      }, 
      "logoTitle": "IGN IPL", 
      "formats": {
        "jpg": "12KB", 
        "png": "14KB", 
        "eps": "1.4MB"
      },
      "modalColor": "black"
    }, 
    {
      "imageFile": "http://uk-microsites.ign.com/brand/images/logos/ign/ign_live/IGN-Live-Logo.jpg", 
      "url": {
        "jpg": "http://uk-microsites.ign.com/brand/images/logos/ign/ign_live/IGN-Live-Logo.jpg", 
        "psd": "http://uk-microsites.ign.com/brand/images/logos/ign/ign_live/IGN%20Live%20Logo.psd"
      }, 
      "logoTitle": "IGN Live", 
      "formats": {
        "jpg": "15KB", 
        "psd": "423KB"
      },
      "modalColor": "black"
    }, 
    {
      "imageFile": "http://uk-microsites.ign.com/brand/images/logos/ign/ign_logo-dark/IGN-Logo-for-Dark-BG-JPEG-opt.jpg", 
      "url": {
        "ai": "http://uk-microsites.ign.com/brand/images/logos/ign/ign_logo-dark/IGN%20Logo%20for%20Dark%20BG%20CMYK.ai", 
        "jpg": "http://uk-microsites.ign.com/brand/images/logos/ign/ign_logo-dark/IGN%20Logo%20for%20Dark%20BG%20JPEG.jpg"
      }, 
      "logoTitle": "IGN Logo for Dark Background", 
      "formats": {
        "ai": "1.1MB", 
        "jpg": "1.6MB"
      },
      "modalColor": "black"
    }, 
    {
      "imageFile": "http://uk-microsites.ign.com/brand/images/logos/ign/ign_logo-white/IGN-Logo-for-White-BG_JPEG-opt.jpg", 
      "url": {
        "ai": "http://uk-microsites.ign.com/brand/images/logos/ign/ign_logo-white/IGN%20Logo%20for%20White%20BG.ai", 
        "jpg": "http://uk-microsites.ign.com/brand/images/logos/ign/ign_logo-white/IGN%20Logo%20for%20White%20BG_JPEG.jpg", 
        "png": "http://uk-microsites.ign.com/brand/images/logos/ign/ign_logo-white/IGN%20Logo%20for%20White%20BG.png", 
        "eps": "http://uk-microsites.ign.com/brand/images/logos/ign/ign_logo-white/IGN%20Logo%20for%20White%20BG.eps"
      }, 
      "logoTitle": "IGN Logo for White Background", 
      "formats": {
        "ai": "1.1MB", 
        "jpg": "314KB", 
        "png": "328KB", 
        "eps": "387KB"
      },
      "modalColor": "white"
    }, 
    {
      "imageFile": "http://uk-microsites.ign.com/brand/images/logos/ign/ign_transparent/IGN_Dark_BG-opt.png", 
      "url": {
        "png": "http://uk-microsites.ign.com/brand/images/logos/ign/ign_transparent/IGN_Dark_BG.png"
      }, 
      "logoTitle": "IGN Transparent", 
      "formats": {
        "png": "261KB"
      },
      "modalColor": "black"
    }, 
    {
      "imageFile": "http://uk-microsites.ign.com/brand/images/logos/askmen/am_no-strap/AM-for-White-BG.jpg", 
      "url": {
        "jpg": "http://uk-microsites.ign.com/brand/images/logos/askmen/am_no-strap/AM-for-White-BG.jpg"
      }, 
      "logoTitle": "ASKMEN 'AM' LOGO, NO STRAPLINE", 
      "formats": {
        "jpg": "38KB"
      },
      "modalColor": "white"
    }, 
    {
      "imageFile": "http://uk-microsites.ign.com/brand/images/logos/askmen/am_outline/AM-Outline.png", 
      "url": {
        "ai": "http://uk-microsites.ign.com/brand/images/logos/askmen/am_outline/AM%20Outline.ai"
      }, 
      "logoTitle": "ASKMEN LOGO OUTLINE", 
      "formats": {
        "ai": "41KB"
      },
      "modalColor": "white"
    }, 
    {
      "imageFile": "http://uk-microsites.ign.com/brand/images/logos/askmen/am_with-strap/AM-with-Strap-for-White-BG-opt.jpg", 
      "url": {
        "jpg": "http://uk-microsites.ign.com/brand/images/logos/askmen/am_with-strap/AM%20with%20Strap%20for%20White%20BG.jpg"
      }, 
      "logoTitle": "ASKMEN 'AM' LOGO WITH STRAPLINE", 
      "formats": {
        "jpg": "22KB"
      },
      "modalColor": "white"
    }, 
    {
      "imageFile": "http://uk-microsites.ign.com/brand/images/logos/askmen/askmen_black-bg-grey-strap/AskMen-Logo-for-Black-BG.png", 
      "url": {
        "ai": "http://uk-microsites.ign.com/brand/images/logos/askmen/askmen_black-bg-grey-strap/AskMen%20Logo%20for%20Black%20BG.ai", 
        "png": "http://uk-microsites.ign.com/brand/images/logos/askmen/askmen_black-bg-grey-strap/AskMen-Logo-for-Black-BG.png", 
        "jpg": "http://uk-microsites.ign.com/brand/images/logos/askmen/askmen_black-bg-grey-strap/AskMen%20on%20Black%20BG.jpg"
      }, 
      "logoTitle": "ASKMEN FOR BLACK BACKGROUNDS WITH STRAPLINE", 
      "formats": {
        "ai": "158KB", 
        "png": "9KB", 
        "jpg": "20KB"
      },
      "modalColor": "black"
    }, 
    {
      "imageFile": "http://uk-microsites.ign.com/brand/images/logos/askmen/askmen_black-bg-no-strap/AskMen-Logo-for-Black-BG-No-Strap.png", 
      "url": {
        "ai": "http://uk-microsites.ign.com/brand/images/logos/askmen/askmen_black-bg-no-strap/AskMen%20Logo%20for%20Black%20BG%20No%20Strap.ai", 
        "png": "http://uk-microsites.ign.com/brand/images/logos/askmen/askmen_black-bg-no-strap/AskMen-Logo-for-Black-BG-No-Strap.png", 
        "jpg": "http://uk-microsites.ign.com/brand/images/logos/askmen/askmen_black-bg-no-strap/AskMen-Logo-for-Black-BG-No-Strap.jpg"
      }, 
      "logoTitle": "ASKMEN LOGO FOR BLACK BACKGROUND NO STRAPLINE", 
      "formats": {
        "ai": "149KB", 
        "png": "7KB", 
        "jpg": "15KB"
      },
      "modalColor": "black"
    }, 
    {
      "imageFile": "http://uk-microsites.ign.com/brand/images/logos/askmen/askmen_white-strap/AskMen-for-White-BG.png", 
      "url": {
        "ai": "http://uk-microsites.ign.com/brand/images/logos/askmen/askmen_white-strap/AskMen%20for%20White%20BG.ai", 
        "png": "http://uk-microsites.ign.com/brand/images/logos/askmen/askmen_white-strap/AskMen-for-White-BG.png", 
        "jpg": "http://uk-microsites.ign.com/brand/images/logos/askmen/askmen_white-strap/AskMen%20for%20White%20BG.jpg"
      }, 
      "logoTitle": "ASKMEN LOGO FOR WHITE BACKGROUND WITH STRAPLINE", 
      "formats": {
        "ai": "160KB", 
        "png": "8KB", 
        "jpg": "20KB"
      },
      "modalColor": "white"
    }, 
    {
      "imageFile": "http://uk-microsites.ign.com/brand/images/logos/askmen/askmen.com/AskMen.com-Logo-for-White-BG-No-Strap.png", 
      "url": {
        "ai": "http://uk-microsites.ign.com/brand/images/logos/askmen/askmen.com/AskMen.com%20Logo%20for%20White%20BG%20No%20Strap.ai", 
        "png": "http://uk-microsites.ign.com/brand/images/logos/askmen/askmen.com/AskMen.com-Logo-for-White-BG-No-Strap.png", 
        "jpg": "http://uk-microsites.ign.com/brand/images/logos/askmen/askmen.com/AskMen.com-Logo-for-White-BG-No-Strap.jpg", 
        "eps": "http://uk-microsites.ign.com/brand/images/logos/askmen/askmen.com/AskMen.com%20Logo%20for%20White%20BG.eps"
      }, 
      "logoTitle": "ASKMEN.COM LOGO", 
      "formats": {
        "ai": "376KB", 
        "png": "6KB", 
        "jpg": "24KB", 
        "eps": "741KB"
      },
      "modalColor": "white"
    }
  ]
}
